Adrián Cidre - 3D Population Spikes Map - Norway
…
Once we downloaded the data, we can read it into R and project it to the Lambert Azimuthal Equal-Area (LAEA) projection:

population_sf <- 
  read_sf(file_path) %>% 
  st_transform("EPSG:3035")

population_sf

Simple feature collection with 186254 features and 2 fields
Geometry type: POLYGON
Dimension:     XY
Bounding box:  xmin: 3629718 ymin: 3876026 xmax: 5132823 ymax: 6391949
Projected CRS: ETRS89-extended / LAEA Europe
# A tibble: 186,254 × 3
   h3              population                                               geom
 * <chr>                <dbl>                                      <POLYGON [m]>
 1 8809abd9b5fffff          2 ((4045387 4292797, 4044957 4292776, 4044823 42923…
 2 8809abd9a7fffff          1 ((4044985 4291569, 4044555 4291547, 4044421 42911…
 3 8809abcf67fffff         66 ((4054799 4300908, 4054370 4300887, 4054237 43004…
 4 8809abcf63fffff          1 ((4054637 4301704, 4054208 4301684, 4054075 43012…
 5 8809abcf2dfffff          2 ((4055524 4300541, 4055095 4300520, 4054961 43001…
 6 8809abcf2bfffff          6 ((4055924 4301767, 4055495 4301746, 4055362 43013…
 7 8809abcf29fffff          6 ((4055362 4301337, 4054933 4301317, 4054799 43009…
 8 8809abcf27fffff          5 ((4056811 4300603, 4056382 4300583, 4056248 43001…
 9 8809abcf25fffff          2 ((4056248 4300174, 4055819 4300153, 4055686 42997…
10 8809abcf21fffff          7 ((4056086 4300970, 4055657 4300950, 4055524 43005…
# ℹ 186,244 more rows
…
